C:\Users\Skullcandy\Desktop\VVSS\Lab7Prj\src\test\java\Lab07\pages\DictionaryPage.java
C:\Users\Skullcandy\Desktop\VVSS\Lab7Prj\src\test\java\Lab07\features\search\SearchByKeywordStory.java
C:\Users\Skullcandy\Desktop\VVSS\Lab7Prj\src\test\java\Lab07\steps\serenity\EndUserSteps.java
C:\Users\Skullcandy\Desktop\VVSS\Lab7Prj\src\test\java\Lab07\features\search\package-info.java
